<?xml version="1.0" encoding="UTF-8" standalone="no"?>
<!-- Created with Inkscape (http://www.inkscape.org/) -->

<svg
   xmlns:dc="http://purl.org/dc/elements/1.1/"
   xmlns:cc="http://creativecommons.org/ns#"
   xmlns:rdf="http://www.w3.org/1999/02/22-rdf-syntax-ns#"
   xmlns:svg="http://www.w3.org/2000/svg"
   xmlns="http://www.w3.org/2000/svg"
   xmlns:xlink="http://www.w3.org/1999/xlink"
   xmlns:sodipodi="http://sodipodi.sourceforge.net/DTD/sodipodi-0.dtd"
   xmlns:inkscape="http://www.inkscape.org/namespaces/inkscape"
   width="13.951531mm"
   height="13.917515mm"
   viewBox="0 0 13.951531 13.917515"
   version="1.1"
   id="svg2531"
   inkscape:version="0.92.3 (2405546, 2018-03-11)"
   sodipodi:docname="om_logo_short.svg">
  <defs
     id="defs2525">
    <inkscape:path-effect
       effect="spiro"
       id="path-effect3060-9"
       is_visible="true" />
    <inkscape:path-effect
       effect="spiro"
       id="path-effect3085"
       is_visible="true" />
    <inkscape:path-effect
       effect="spiro"
       id="path-effect3087"
       is_visible="true" />
    <inkscape:path-effect
       effect="spiro"
       id="path-effect3089"
       is_visible="true" />
    <inkscape:path-effect
       effect="spiro"
       id="path-effect3091"
       is_visible="true" />
    <inkscape:path-effect
       effect="spiro"
       id="path-effect3093"
       is_visible="true" />
    <inkscape:path-effect
       effect="spiro"
       id="path-effect3095"
       is_visible="true" />
    <inkscape:path-effect
       effect="spiro"
       id="path-effect3097"
       is_visible="true" />
    <inkscape:path-effect
       effect="spiro"
       id="path-effect3099"
       is_visible="true" />
    <inkscape:path-effect
       effect="spiro"
       id="path-effect3101"
       is_visible="true" />
    <inkscape:path-effect
       effect="spiro"
       id="path-effect3103"
       is_visible="true" />
    <inkscape:path-effect
       effect="spiro"
       id="path-effect3105"
       is_visible="true" />
    <inkscape:path-effect
       effect="spiro"
       id="path-effect3107"
       is_visible="true" />
    <inkscape:path-effect
       effect="spiro"
       id="path-effect3109"
       is_visible="true" />
    <inkscape:path-effect
       effect="spiro"
       id="path-effect3111"
       is_visible="true" />
    <inkscape:path-effect
       effect="spiro"
       id="path-effect3113"
       is_visible="true" />
    <inkscape:path-effect
       effect="spiro"
       id="path-effect3115"
       is_visible="true" />
    <inkscape:path-effect
       effect="spiro"
       id="path-effect3117"
       is_visible="true" />
    <inkscape:path-effect
       effect="spiro"
       id="path-effect3119"
       is_visible="true" />
    <inkscape:path-effect
       effect="spiro"
       id="path-effect3121"
       is_visible="true" />
    <inkscape:path-effect
       effect="spiro"
       id="path-effect3123"
       is_visible="true" />
    <inkscape:path-effect
       effect="spiro"
       id="path-effect3125"
       is_visible="true" />
  </defs>
  <sodipodi:namedview
     id="base"
     pagecolor="#ffffff"
     bordercolor="#666666"
     borderopacity="1.0"
     inkscape:pageopacity="0.0"
     inkscape:pageshadow="2"
     inkscape:zoom="0.81484375"
     inkscape:cx="62.999725"
     inkscape:cy="-69.039565"
     inkscape:document-units="mm"
     inkscape:current-layer="layer1"
     showgrid="false"
     fit-margin-top="0"
     fit-margin-left="0"
     fit-margin-right="0"
     fit-margin-bottom="0"
     inkscape:window-width="1366"
     inkscape:window-height="744"
     inkscape:window-x="0"
     inkscape:window-y="0"
     inkscape:window-maximized="1" />
  <metadata
     id="metadata2528">
    <rdf:RDF>
      <cc:Work
         rdf:about="">
        <dc:format>image/svg+xml</dc:format>
        <dc:type
           rdf:resource="http://purl.org/dc/dcmitype/StillImage" />
        <dc:title></dc:title>
      </cc:Work>
    </rdf:RDF>
  </metadata>
  <g
     inkscape:label="Layer 1"
     inkscape:groupmode="layer"
     id="layer1"
     transform="translate(-33.153151,-116.6491)">
    <g
       id="g3076-7"
       transform="matrix(0.0168371,0,0,0.0168371,36.897423,117.23783)">
      <g
         id="g3034-1">
        <g
           id="g3024-4">
          <g
             style="fill:#000000"
             transform="matrix(1,0,0,1.3885016,0,-56.428005)"
             id="use3012-7"
             inkscape:tile-x0="161.6066"
             inkscape:tile-y0="145.2452">
            <path
               sodipodi:nodetypes="cccc"
               inkscape:connector-curvature="0"
               inkscape:original-d="m 156.14471,174.50922 36.58171,-29.52124 c 20.7914,3.28704 25.19076,17.01165 36.81748,29.65366 30.53482,-7.89257 -63.26294,-0.2722 -73.39919,-0.13242 z"
               inkscape:path-effect="#path-effect3060-9"
               id="path3048-6"
               d="m 156.14471,174.50922 36.58171,-29.52124 36.81748,29.65366 z"
               style="fill:#c83737;stroke:#000000;stroke-width:0.73123121px;stroke-linecap:butt;stroke-linejoin:miter;stroke-opacity:1" />
            <path
               sodipodi:nodetypes="ccccc"
               inkscape:connector-curvature="0"
               id="rect3050-9"
               d="m 154.46374,184.9119 h 78.37934 l -8.57143,34.16547 H 161.6066 Z"
               style="fill:#ffcc00;fill-opacity:1;stroke:#000000;stroke-width:0.27802953;stroke-miterlimit:4;stroke-opacity:1" />
            <text
               xml:space="preserve"
               style="font-style:normal;font-variant:normal;font-weight:normal;font-stretch:normal;line-height:0%;font-family:'Liberation Sans';-inkscape-font-specification:'Liberation Sans';letter-spacing:0px;word-spacing:0px;fill:#000000;fill-opacity:1;stroke:none"
               x="67.14286"
               y="86.647896"
               id="text3095-9"
               transform="matrix(15.714306,0,0,11.317456,-873.91501,-369.86032)"><tspan
                 sodipodi:role="line"
                 id="tspan3097-9"
                 x="67.14286"
                 y="86.647896"
                 style="font-size:20px;line-height:1.25"> </tspan></text>
          </g>
          <use
             height="1052.3622"
             width="744.09448"
             transform="rotate(-30,188.9516,380.92771)"
             id="use3020-2"
             xlink:href="#use3012-7"
             y="0"
             x="0" />
          <use
             height="1052.3622"
             width="744.09448"
             transform="rotate(-60,192.14134,379.33735)"
             id="use3022-0"
             xlink:href="#use3012-7"
             y="0"
             x="0" />
        </g>
        <use
           x="0"
           y="0"
           xlink:href="#g3024-4"
           id="use3032-7"
           transform="rotate(-90,192.83207,378.22778)"
           width="744.09448"
           height="1052.3622" />
      </g>
      <use
         height="1052.3622"
         width="744.09448"
         transform="rotate(180,191.92696,378.33283)"
         id="use3044-4"
         xlink:href="#g3034-1"
         y="0"
         x="0" />
    </g>
  </g>
</svg>
