﻿Projekt,Datum,Uživatel,Aktivita,Úkol,Komentář,Hodiny
agenda,27.02.2017,Marcel Kolaja,režie,Úkol #3972: účast na jednání výboru 27.2.2017,účast MK na jednání výboru 27.2.2017,1.00
agenda,23.02.2017,Marcel Kolaja,režie,Úkol #3958: podepsat smlouvu s vítězným uchazečem,"připomínkování návrhu smlouvy, komunikace s dodavatelem",0.50
agenda,19.02.2017,Marcel Kolaja,režie,Úkol #3958: podepsat smlouvu s vítězným uchazečem,připomínkování smlouvy,0.25
agenda,13.02.2017,Marcel Kolaja,režie,Úkol #3956: účast na jednání výboru 13.2.2017,účast MK na jednání výboru 13.2.2017,1.00
agenda,02.02.2017,Marcel Kolaja,režie,Úkol #3958: podepsat smlouvu s vítězným uchazečem,vyzvání uchazeče k návrhu smlouvy,0.25
agenda,02.02.2017,Marcel Kolaja,režie,Úkol #3957: vyhlásit výsledek výběrového řízení,vyhlášení výsledku výběrového řízení,0.25
agenda,02.02.2017,Marcel Kolaja,režie,Úkol #3955: připravit agendu na jednání výboru 13.2.2017,příprava agendy na jednání výboru 14.2.2017,0.25
agenda,02.02.2017,Marcel Kolaja,režie,Úkol #3952: účast na jednání výboru 31.1.2017,účast MK na jednání výboru 31.1.2017,1.00
agenda,02.02.2017,Marcel Kolaja,režie,Úkol #3953: vystavit zápis z jednání výboru 31.1.2017,vystavení zápisu z jednání výboru 31.1.2017,0.50
