﻿Projekt,Datum,Uživatel,Aktivita,Úkol,Komentář,Hodiny
CityVizor,28.12.2017,Daniel Kolář,produkce,Úkol #3935: Organizace a vývoj,Příprava úkolů pro Martina Kopečka,2.00
CityVizor,19.12.2017,Daniel Kolář,produkce,Úkol #4077: Komunikace s městy,Komunikace se zájemci o CityVizor,2.00
agenda,18.12.2017,Daniel Kolář,režie,Úkol #4078: Jednání výboru OM,Jednání 18.12. + příprava,1.50
CityVizor,13.12.2017,Daniel Kolář,produkce,Úkol #3935: Organizace a vývoj,Komunikace s Internet Stream ohledně dalšího postupu,0.50
CityVizor,13.12.2017,Daniel Kolář,produkce,Úkol #4077: Komunikace s městy,Komunikace se zájemci o CityVizor,1.00
CityVizor,12.12.2017,Daniel Kolář,produkce,Úkol #3935: Organizace a vývoj,"Schuzka s Martinem z MF, nasledny mail do vyboru",3.00
CityVizor,12.12.2017,Daniel Kolář,produkce,Úkol #4077: Komunikace s městy,Komunikace se zájemci o CityVizor,1.00
CityVizor,11.12.2017,Daniel Kolář,produkce,Úkol #4077: Komunikace s městy,Komunikace se zájemci o CityVizor,2.00
CityVizor,08.12.2017,Daniel Kolář,produkce,Úkol #4077: Komunikace s městy,Komunikace se zájemci o CityVizor,2.00
CityVizor,07.12.2017,Daniel Kolář,produkce,Úkol #4077: Komunikace s městy,Komunikace se zájemci o CityVizor,1.00
CityVizor,07.12.2017,Daniel Kolář,produkce,Úkol #4092: Prezentace CityVizor na události Impact Hub MashUp,Prezentace na MashUpu,3.25
CityVizor,07.12.2017,Daniel Kolář,produkce,Úkol #4092: Prezentace CityVizor na události Impact Hub MashUp,Příprava prezentace,4.50
agenda,07.12.2017,Daniel Kolář,režie,Úkol #4086: Administrativa,Aktualizace výkazu v Redmine,1.00
CityVizor,05.12.2017,Daniel Kolář,produkce,Úkol #4077: Komunikace s městy,Komunikace se zájemci o cityvizor - domluva se zástupci Brna,2.00
agenda,04.12.2017,Daniel Kolář,režie,Úkol #4078: Jednání výboru OM,Jednání 4.12. + příprava agendy,1.25
agenda,03.12.2017,Daniel Kolář,režie,Úkol #4078: Jednání výboru OM,Příprava agendy na jednání 4.12.,0.50
agenda,01.12.2017,Daniel Kolář,režie,Úkol #4086: Administrativa,Jednání s Marcelem - viz jeho popis ,2.50
agenda,01.12.2017,Daniel Kolář,režie,Úkol #4086: Administrativa,"Tvorba opakované výzvy k zaplaceni prispevku pro města, která nezaplatila",0.25
CityVizor,01.12.2017,Daniel Kolář,produkce,Úkol #4077: Komunikace s městy,"Komunikace se zájemci o cityvizor, jejich evidence do kontaktního listu",1.00
